<svg xmlns="http://www.w3.org/2000/svg" xmlns:xlink="http://www.w3.org/1999/xlink" preserveAspectRatio="xMidYMid" width="20" height="32" viewBox="0 0 20 32">
  <defs>
  </defs>
  <path d="M6.000,9.965 C6.000,9.965 4.000,9.965 4.000,9.965 C4.000,6.657 6.691,3.965 10.000,3.965 C10.000,3.965 10.000,5.966 10.000,5.966 C7.794,5.966 6.000,7.760 6.000,9.965 ZM17.186,16.920 C17.186,16.920 14.910,21.423 14.910,21.423 C14.910,21.423 13.125,20.521 13.125,20.521 C13.125,20.521 15.657,15.622 15.657,15.622 C18.776,12.504 18.776,7.428 15.657,4.309 C12.538,1.190 7.462,1.190 4.343,4.309 C1.223,7.428 1.223,12.504 4.343,15.622 C4.343,15.622 4.457,15.736 4.457,15.736 C4.457,15.736 6.862,20.523 6.862,20.523 C6.862,20.523 5.075,21.422 5.075,21.422 C5.075,21.422 2.812,16.919 2.812,16.919 C-0.970,13.011 -0.931,6.755 2.928,2.895 C6.828,-1.004 13.173,-1.005 17.071,2.895 C20.931,6.755 20.969,13.012 17.186,16.920 ZM14.120,23.958 C14.120,23.958 6.120,24.927 6.120,24.927 C6.120,24.927 5.880,22.941 5.880,22.941 C5.880,22.941 13.880,21.972 13.880,21.972 C13.880,21.972 14.120,23.958 14.120,23.958 ZM14.120,26.958 C14.120,26.958 6.120,27.926 6.120,27.926 C6.120,27.926 5.880,25.941 5.880,25.941 C5.880,25.941 13.880,24.972 13.880,24.972 C13.880,24.972 14.120,26.958 14.120,26.958 ZM9.976,29.965 C10.528,29.965 10.976,29.516 10.976,28.965 C10.976,28.965 12.976,28.965 12.976,28.965 C12.976,30.619 11.631,31.965 9.976,31.965 C8.322,31.965 6.976,30.619 6.976,28.965 C6.976,28.965 8.976,28.965 8.976,28.965 C8.976,29.516 9.425,29.965 9.976,29.965 Z" id="path-1" class="cls-2" fill-rule="evenodd"/>
</svg>
