<svg xmlns="http://www.w3.org/2000/svg" xmlns:xlink="http://www.w3.org/1999/xlink" preserveAspectRatio="xMidYMid" width="30" height="26" viewBox="0 0 30 26">
  <defs>
    <style>

      .cls-2 {
        fill: #ef4035;
      }
    </style>
  </defs>
  <path d="M15.016,16.116 C15.016,16.116 0.015,8.058 0.015,8.058 C0.015,8.058 15.016,-0.001 15.016,-0.001 C15.016,-0.001 30.016,8.058 30.016,8.058 C30.016,8.058 15.016,16.116 15.016,16.116 ZM4.204,8.058 C4.204,8.058 15.016,13.866 15.016,13.866 C15.016,13.866 25.827,8.058 25.827,8.058 C25.827,8.058 15.016,2.249 15.016,2.249 C15.016,2.249 4.204,8.058 4.204,8.058 ZM15.016,18.712 C15.016,18.712 28.477,12.120 28.477,12.120 C28.477,12.120 29.351,13.899 29.351,13.899 C29.351,13.899 15.016,20.919 15.016,20.919 C15.016,20.919 0.680,13.899 0.680,13.899 C0.680,13.899 1.554,12.120 1.554,12.120 C1.554,12.120 15.016,18.712 15.016,18.712 ZM15.016,23.792 C15.016,23.792 28.477,17.201 28.477,17.201 C28.477,17.201 29.351,18.979 29.351,18.979 C29.351,18.979 15.016,25.999 15.016,25.999 C15.016,25.999 0.680,18.979 0.680,18.979 C0.680,18.979 1.554,17.201 1.554,17.201 C1.554,17.201 15.016,23.792 15.016,23.792 Z" id="path-1" class="cls-2" fill-rule="evenodd"/>
</svg>
